8======D~~~~~~~
8=========================D~

asijdjffgpasjdggpasjdlkasmdfklasndd

8=========================================================D 3 3 3 3 

LsdfasdfasdfA MIA ES BIGGER ---------------------

8========))

